module github.com/Abdulsametileri/basic-service-discovery

go 1.19

require github.com/docker/docker v20.10.16+incompatible

require (
	github.com/Microsoft/go-winio v0.5.2 // indirect
	github.com/docker/distribution v2.8.1+incompatible // indirect
	github.com/docker/go-connections v0.4.0 // indirect
	github.com/docker/go-units v0.4.0 // indirect
	github.com/gogo/protobuf v1.3.2 // indirect
	github.com/moby/term v0.0.0-20210619224110-3f7ff695adc6 // indirect
	github.com/morikuni/aec v1.0.0 // indirect
	github.com/opencontainers/go-digest v1.0.0 // indirect
	github.com/opencontainers/image-spec v1.0.2 // indirect
	github.com/pkg/errors v0.9.1 // indirect
	github.com/sirupsen/logrus v1.8.1 // indirect
	golang.org/x/net v0.0.0-20220520000938-2e3eb7b945c2 // indirect
	golang.org/x/sys v0.0.0-20220520151302-bc2c85ada10a // indirect
	golang.org/x/time v0.0.0-20220411224347-583f2d630306 // indirect
	gotest.tools/v3 v3.2.0 // indirect
)
